<?xml version="1.0" encoding="UTF-8" standalone="no"?>
<!-- Created with Inkscape (http://www.inkscape.org/) -->

<svg
   xmlns:dc="http://purl.org/dc/elements/1.1/"
   xmlns:cc="http://creativecommons.org/ns#"
   xmlns:rdf="http://www.w3.org/1999/02/22-rdf-syntax-ns#"
   xmlns:svg="http://www.w3.org/2000/svg"
   xmlns="http://www.w3.org/2000/svg"
   xmlns:sodipodi="http://sodipodi.sourceforge.net/DTD/sodipodi-0.dtd"
   xmlns:inkscape="http://www.inkscape.org/namespaces/inkscape"
   width="210mm"
   height="297mm"
   viewBox="0 0 210 297"
   version="1.1"
   id="svg8"
   inkscape:version="0.92.5 (2060ec1f9f, 2020-04-08)"
   sodipodi:docname="f4.svg">
  <defs
     id="defs2" />
  <sodipodi:namedview
     id="base"
     pagecolor="#ffffff"
     bordercolor="#666666"
     borderopacity="1.0"
     inkscape:pageopacity="0.0"
     inkscape:pageshadow="2"
     inkscape:zoom="0.35"
     inkscape:cx="400"
     inkscape:cy="560"
     inkscape:document-units="mm"
     inkscape:current-layer="layer1"
     showgrid="false"
     inkscape:window-width="1024"
     inkscape:window-height="704"
     inkscape:window-x="0"
     inkscape:window-y="27"
     inkscape:window-maximized="1" />
  <metadata
     id="metadata5">
    <rdf:RDF>
      <cc:Work
         rdf:about="">
        <dc:format>image/svg+xml</dc:format>
        <dc:type
           rdf:resource="http://purl.org/dc/dcmitype/StillImage" />
        <dc:title></dc:title>
      </cc:Work>
    </rdf:RDF>
  </metadata>
  <g
     inkscape:label="Layer 1"
     inkscape:groupmode="layer"
     id="layer1">
    <path
       sodipodi:type="spiral"
       style="fill:#0000ff;fill-rule:evenodd;stroke:#000000;stroke-width:0.26458332"
       id="path10"
       sodipodi:cx="105.83333"
       sodipodi:cy="115.57143"
       sodipodi:expansion="1"
       sodipodi:revolution="1.5218555"
       sodipodi:radius="39.634411"
       sodipodi:argument="-17.772701"
       sodipodi:t0="0"
       d="m 105.83333,115.57143 c 1.85721,3.4491 -3.73304,4.20514 -5.73263,3.0868 -5.418782,-3.03064 -4.121224,-10.74671 -0.44098,-14.55207 6.58309,-6.806892 17.68466,-4.505216 23.3715,2.20485 8.34568,9.8473 4.93078,24.72763 -4.85068,32.19094 -13.03714,9.94742 -31.809311,5.37587 -41.01037,-7.4965 -11.578595,-16.19857 -5.831413,-38.909803 10.142335,-49.829814 1.495203,-1.022154 3.061867,-1.939517 4.68411,-2.744913" />
    <flowRoot
       xml:space="preserve"
       id="flowRoot16"
       style="font-style:normal;font-weight:normal;font-size:40px;line-height:1.25;font-family:sans-serif;letter-spacing:0px;word-spacing:0px;fill:#0000ff;fill-opacity:1;stroke:none;"
       transform="scale(0.26458333)"><flowRegion
         id="flowRegion18"
         style="fill:#0000ff;"><rect
           id="rect20"
           width="68.571426"
           height="62.857143"
           x="462.85715"
           y="525.37683"
           style="fill:#0000ff;" /></flowRegion><flowPara
         id="flowPara22">4</flowPara></flowRoot>  </g>
</svg>
